{
  "users": [
    {
      "id": 1,
      "screenname": "Admin",
      "login": "admin@domaine.tld",
      "password": "secret",
      "active": true,
      "role": "administrator"
    },
    {
      "id": 2,
      "screenname": "John Doe",
      "login": "john@doe.tld",
      "password": "secret",
      "active": true,
      "role": "student"
    }
  ]
} 
